{
	"id": "c38d1ddd-8776-4737-bdfd-1611bb161429",
	"name": "Shopify_API",
	"values": [
		{
			"key": "Username",
			"value": "f383be649f9081e427e364fd78081d76",
			"enabled": true
		},
		{
			"key": "Password",
			"value": "5d3be6577fc06e6067ee632dbfc1c1f1",
			"enabled": true
		},
		{
			"key": "API version",
			"value": "2019-10",
			"enabled": true
		},
		{
			"key": "id_test_product#004",
			"value": "4386726543457",
			"enabled": true
		},
		{
			"key": "url_shopify",
			"value": "masacad.myshopify.com",
			"enabled": true
		},
		{
			"key": "id_test_product#005",
			"value": "4386728050785",
			"enabled": true
		},
		{
			"key": "id_test_product#006\n",
			"value": "4386728280161",
			"enabled": true
		}
	],
	"_postman_variable_scope": "environment",
	"_postman_exported_at": "2019-11-26T23:01:28.649Z",
	"_postman_exported_using": "Postman/7.10.0"
}